{1:F01CBLUCH22AXXX0000000000}{2:I94000286383XXXXN}{4:
:20:1202223021800001
:25:204866-02
:28C:00006/001
:60F:C201201USD18404,71
:61:2012011202CD96,90NSECCONTEGGIO TITOLI//221200584867
.....300 PFIZER INC SHS           
:86:ISIN  US7170811035 
DEPOSITO 204866/03
PFIZER INC SHS 
QUANTITA' 300,00
:62F:C201202USD18501,61
:64:C201202USD18501,61
-}
{1:F01CBLUCH22AXXX0000000000}{2:I94000286383XXXXN}{4:
:20:1202223021850002
:25:209426-06
:28C:00002/001
:60F:C201201EUR300000,
:61:2012081202DR30000,81NSECCONTEGGIO TITOLI//221200857291
.....642 FUNDSMITH(L)EQUITY I     
:86:ISIN  LU0690374029 
DEPOSITO 209426/03
VOSTRO ORDINE DEL 01.12.2020
FUNDSMITH EQUITY FUND SICAV - 
SHS I CAPITALISATION 
QUANTITA' 642,85
:62F:C201202EUR269999,19
:64:C201202EUR300000,
:65:C201208EUR269999,19
-}
{1:F01CBLUCH22AXXX0000000000}{2:I94000286383XXXXN}{4:
:20:1202223024410003
:25:244414-06
:28C:00134/001
:60F:C201201EUR319982,92
:61:2012021202CR3240,96NTRFRIMBORSO MARGINE//221200784411
:86:REFUND MARGIN 
EUREX 
:62F:C201202EUR323223,88
:64:C201202EUR323223,88
-}
{1:F01CBLUCH22AXXX0000000000}{2:I94000286383XXXXN}{4:
:20:1202223024520004
:25:244414-30
:28C:00106/001
:60F:C201201EUR3240,96
:61:2012021202DR3240,96NTRFRIMBORSO MARGINE//221200784412
:86:REFUND MARGIN 
EUREX 
:62F:C201202EUR0,
:64:C201202EUR0,
-}
{1:F01CBLUCH22AXXX0000000000}{2:I94000286383XXXXN}{4:
:20:1202223024620005
:25:248562-02
:28C:00012/001
:60F:C201201USD465,59
:61:2012041202CD156704,85NSECCONTEGGIO TITOLI//221200826552
...10500 PROSHS SH.QQQ            
:86:ISIN  US74347B7148 
DEPOSITO 248562/03
VOSTRO ORDINE DEL 02.12.2020
PROSHARES SHORT QQQ 
QUANTITA' 10.500,00
PIAZZA DI BORSA NYSE ARCA
:62F:C201202USD157170,44
:64:C201202USD465,59
:65:C201204USD157170,44
-}
{1:F01CBLUCH22AXXX0000000000}{2:I94000286383XXXXN}{4:
:20:1202223024750006
:25:249063-02
:28C:00024/001
:60F:D201201USD105132,06
:61:2012041202CD106527,75NSECCONTEGGIO TITOLI//221200801401
.....985 CORNER FUNDS STM USD     
:86:ISIN  CH0010664271 
DEPOSITO 249063/03
VOSTRO ORDINE DEL 01.12.2020
CORNER FUNDS - SHORT TERM MATU 
RITY USD 
QUANTITA' 985,00
:62F:C201202USD1395,69
:64:D201202USD105132,06
:65:C201204USD1395,69
-}
{1:F01CBLUCH22AXXX0000000000}{2:I94000286383XXXXN}{4:
:20:1202223025390007
:25:249063-06
:28C:00165/001
:60F:C201201EUR16241,41
:61:2012021202CR708,24NTRFRIMBORSO MARGINE//221200784621
:86:REFUND MARGIN 
EUREX 
:62F:C201202EUR16949,65
:64:C201202EUR16949,65
-}
{1:F01CBLUCH22AXXX0000000000}{2:I94000286383XXXXN}{4:
:20:1202223025410008
:25:249063-30
:28C:00148/001
:60F:C201201EUR15033,52
:61:2012021202DR708,24NTRFRIMBORSO MARGINE//221200784622
:86:REFUND MARGIN 
EUREX 
:62F:C201202EUR14325,28
:64:C201202EUR14325,28
-}
{1:F01CBLUCH22AXXX0000000000}{2:I94000286383XXXXN}{4:
:20:1202223025530009
:25:251941-06
:28C:00015/001
:60F:C201201EUR20575,09
:61:2012081202DR15000,17NSECCONTEGGIO TITOLI//221200857281
.....321 FUNDSMITH(L)EQUITY I     
:86:ISIN  LU0690374029 
DEPOSITO 251941/03
VOSTRO ORDINE DEL 01.12.2020
FUNDSMITH EQUITY FUND SICAV - 
SHS I CAPITALISATION 
QUANTITA' 321,42
:62F:C201202EUR5574,92
:64:C201202EUR20575,09
:65:C201208EUR5574,92
-}
{1:F01CBLUCH22AXXX0000000000}{2:I94000286383XXXXN}{4:
:20:1202223026890010
:25:252391-02
:28C:00167/001
:60F:D201201USD535200,76
:61:2012021202CD24917,50NSECCONTEGGIO TITOLI//221200584601
......50 KNDI P A 13 18DEC20      
:86:ISIN  802029150000 
DEPOSITO 252391/05
VOSTRO ORDINE DEL 01.12.2020
OPTION ON EQUITY KANDI TECH PU 
T A 13 18DEC 2020 
QUANTITA' 50,00
:61:2012021202CD289670,NSECCONTEGGIO TITOLI//221200707682
.....200 NIO P A 55 15JAN21       
:86:ISIN  827793430000 
DEPOSITO 252391/05
VOSTRO ORDINE DEL 01.12.2020
OPTION ON EQUITY NIO PUT A 55 
15JAN21 
QUANTITA' 200,00
:61:2012021202CD314670,NSECCONTEGGIO TITOLI//221200706922
.....200 XPEV P A65 18DEC20       
:86:ISIN  830268130000 
DEPOSITO 252391/05
VOSTRO ORDINE DEL 01.12.2020
OPTION ON EQUITY XPENG ADS-A P 
UT A65 18DECEMBER 2020 
QUANTITA' 200,00
:61:2012031202CD11335,NSECCONTEGGIO TITOLI//221200864112
.....100 NIO C A 63 18DEC20       
:86:ISIN  833656460000 
DEPOSITO 252391/05
VOSTRO ORDINE DEL 02.12.2020
OPTION ON EQUITY NIO CALL A 63 
18DEC20 
QUANTITA' 100,00
:61:2012031202CD260257,50NSECCONTEGGIO TITOLI//221200832152
.....450 KNDI P A 13 18DEC20      
:86:ISIN  802029150000 
DEPOSITO 252391/05
VOSTRO ORDINE DEL 02.12.2020
OPTION ON EQUITY KANDI TECH PU 
T A 13 18DEC 2020 
QUANTITA' 450,00
:61:2012041202CD458914,86NSECCONTEGGIO TITOLI//221200864632
...10000 NIO SHS                  
:86:ISIN  US62914V1061 
DEPOSITO 252391/03
VOSTRO ORDINE DEL 02.12.2020
NIO SHS 
QUANTITA' 10.000,00
PIAZZA DI BORSA NYSE
:61:2012041202DD1082906,24NSECCONTEGGIO TITOLI//221200628931
....5600 SCHRODER(L)GL.ENER.C     
:86:ISIN  LU2016063229 
DEPOSITO 252391/03
VOSTRO ORDINE DEL 01.12.2020
SCHRODER INTL.SELECTION SICAV 
  GL.ENERGY TRANSITION C CAP. 
QUANTITA' 5.600,00
:62F:D201202USD258342,14
:64:C201202USD1446604,24
:65:C201203USD365649,24
:65:D201204USD258342,14
-}
{1:F01CBLUCH22AXXX0000000000}{2:I94000286383XXXXN}{4:
:20:1202223026990011
:25:256254-02
:28C:00019/001
:60F:C201201USD2455,81
:61:2012041202CD13000,NFEXOPERAZIONE CAMBI//221200713041
1,196019 UNIONE FID.FWMS3156      
:86:1,196019 UNIONE FID.FWMS3156 
:62F:C201202USD15455,81
:64:C201202USD2455,81
:65:C201204USD15455,81
-}
{1:F01CBLUCH22AXXX0000000000}{2:I94000286383XXXXN}{4:
:20:1202223027100012
:25:256254-06
:28C:00019/001
:60F:C201201EUR221412,62
:61:2012041202DR10869,39NFEXOPERAZIONE CAMBI//221200713042
1,196019 UNIONE FID.FWMS3156      
:86:1,196019 UNIONE FID.FWMS3156 
:62F:C201202EUR210543,23
:64:C201202EUR221412,62
:65:C201204EUR210543,23
-}
{1:F01CBLUCH22AXXX0000000000}{2:I94000286383XXXXN}{4:
:20:1202223028230013
:25:256807-06
:28C:00113/001
:60F:C201201EUR288075,96
:61:2012041202DR77960,75NSECCONTEGGIO TITOLI//221200809451
....1451 VANECK LOC.CCY BD        
:86:ISIN  IE00BDS67326 
DEPOSITO 256807/03
VOSTRO ORDINE DEL 02.12.2020
VANECK VECTORS JP MORGAN LOCAL 
CURRENCY BOND UCITS ETF 
QUANTITA' 1.451,00
:62F:C201202EUR210115,21
:64:C201202EUR288075,96
:65:C201204EUR210115,21
-}
{1:F01CBLUCH22AXXX0000000000}{2:I94000286383XXXXN}{4:
:20:1202223028980014
:25:256811-06
:28C:00113/001
:60F:C201201EUR288081,86
:61:2012041202DR77960,75NSECCONTEGGIO TITOLI//221200809481
....1451 VANECK LOC.CCY BD        
:86:ISIN  IE00BDS67326 
DEPOSITO 256811/03
VOSTRO ORDINE DEL 02.12.2020
VANECK VECTORS JP MORGAN LOCAL 
CURRENCY BOND UCITS ETF 
QUANTITA' 1.451,00
:62F:C201202EUR210121,11
:64:C201202EUR288081,86
:65:C201204EUR210121,11
-}
{1:F01CBLUCH22AXXX0000000000}{2:I94000286383XXXXN}{4:
:20:1202223029410015
:25:256832-06
:28C:00113/001
:60F:C201201EUR288189,51
:61:2012041202DR77960,75NSECCONTEGGIO TITOLI//221200809471
....1451 VANECK LOC.CCY BD        
:86:ISIN  IE00BDS67326 
DEPOSITO 256832/03
VOSTRO ORDINE DEL 02.12.2020
VANECK VECTORS JP MORGAN LOCAL 
CURRENCY BOND UCITS ETF 
QUANTITA' 1.451,00
:62F:C201202EUR210228,76
:64:C201202EUR288189,51
:65:C201204EUR210228,76
-}
{1:F01CBLUCH22AXXX0000000000}{2:I94000286383XXXXN}{4:
:20:1202223029710016
:25:256837-06
:28C:00113/001
:60F:C201201EUR288190,88
:61:2012041202DR77960,75NSECCONTEGGIO TITOLI//221200809461
....1451 VANECK LOC.CCY BD        
:86:ISIN  IE00BDS67326 
DEPOSITO 256837/03
VOSTRO ORDINE DEL 02.12.2020
VANECK VECTORS JP MORGAN LOCAL 
CURRENCY BOND UCITS ETF 
QUANTITA' 1.451,00
:62F:C201202EUR210230,13
:64:C201202EUR288190,88
:65:C201204EUR210230,13
-}
{1:F01CBLUCH22AXXX0000000000}{2:I94000286383XXXXN}{4:
:20:1202223030010017
:25:256841-06
:28C:00117/001
:60F:C201201EUR407996,64
:61:2012041202DR112615,93NSECCONTEGGIO TITOLI//221200809441
....2096 VANECK LOC.CCY BD        
:86:ISIN  IE00BDS67326 
DEPOSITO 256841/03
VOSTRO ORDINE DEL 02.12.2020
VANECK VECTORS JP MORGAN LOCAL 
CURRENCY BOND UCITS ETF 
QUANTITA' 2.096,00
:62F:C201202EUR295380,71
:64:C201202EUR407996,64
:65:C201204EUR295380,71
-}
{1:F01CBLUCH22AXXX0000000000}{2:I94000286383XXXXN}{4:
:20:1202223031300018
:25:256981-06
:28C:00112/001
:60F:C201201EUR27730,39
:61:2012041202DR9348,85NSECCONTEGGIO TITOLI//221200809491
.....174 VANECK LOC.CCY BD        
:86:ISIN  IE00BDS67326 
DEPOSITO 256981/03
VOSTRO ORDINE DEL 02.12.2020
VANECK VECTORS JP MORGAN LOCAL 
CURRENCY BOND UCITS ETF 
QUANTITA' 174,00
:62F:C201202EUR18381,54
:64:C201202EUR27730,39
:65:C201204EUR18381,54
-}
{1:F01CBLUCH22AXXX0000000000}{2:I94000286383XXXXN}{4:
:20:1202223031630019
:25:256985-06
:28C:00113/001
:60F:C201201EUR166859,19
:61:2012041202DR53352,87NSECCONTEGGIO TITOLI//221200809501
.....993 VANECK LOC.CCY BD        
:86:ISIN  IE00BDS67326 
DEPOSITO 256985/03
VOSTRO ORDINE DEL 02.12.2020
VANECK VECTORS JP MORGAN LOCAL 
CURRENCY BOND UCITS ETF 
QUANTITA' 993,00
:62F:C201202EUR113506,32
:64:C201202EUR166859,19
:65:C201204EUR113506,32
-}
{1:F01CBLUCH22AXXX0000000000}{2:I94000286383XXXXN}{4:
:20:1202223031810020
:25:256990-06
:28C:00115/001
:60F:C201201EUR185893,97
:61:2012041202DR52385,75NSECCONTEGGIO TITOLI//221200809511
.....975 VANECK LOC.CCY BD        
:86:ISIN  IE00BDS67326 
DEPOSITO 256990/03
VOSTRO ORDINE DEL 02.12.2020
VANECK VECTORS JP MORGAN LOCAL 
CURRENCY BOND UCITS ETF 
QUANTITA' 975,00
:62F:C201202EUR133508,22
:64:C201202EUR185893,97
:65:C201204EUR133508,22
-}
{1:F01CBLUCH22AXXX0000000000}{2:I94000286383XXXXN}{4:
:20:1202223032020021
:25:256998-06
:28C:00113/001
:60F:C201201EUR166862,02
:61:2012041202DR53352,87NSECCONTEGGIO TITOLI//221200809521
.....993 VANECK LOC.CCY BD        
:86:ISIN  IE00BDS67326 
DEPOSITO 256998/03
VOSTRO ORDINE DEL 02.12.2020
VANECK VECTORS JP MORGAN LOCAL 
CURRENCY BOND UCITS ETF 
QUANTITA' 993,00
:62F:C201202EUR113509,15
:64:C201202EUR166862,02
:65:C201204EUR113509,15
-}
{1:F01CBLUCH22AXXX0000000000}{2:I94000286383XXXXN}{4:
:20:1202223032920022
:25:257266-06
:28C:00118/001
:60F:C201201EUR145744,42
:61:2012041202DR46421,83NSECCONTEGGIO TITOLI//221200809561
.....864 VANECK LOC.CCY BD        
:86:ISIN  IE00BDS67326 
DEPOSITO 257266/03
VOSTRO ORDINE DEL 02.12.2020
VANECK VECTORS JP MORGAN LOCAL 
CURRENCY BOND UCITS ETF 
QUANTITA' 864,00
:62F:C201202EUR99322,59
:64:C201202EUR145744,42
:65:C201204EUR99322,59
-}
{1:F01CBLUCH22AXXX0000000000}{2:I94000286383XXXXN}{4:
:20:1202223033190023
:25:257270-06
:28C:00121/001
:60F:C201201EUR147613,07
:61:2012041202DR45669,62NSECCONTEGGIO TITOLI//221200809541
.....850 VANECK LOC.CCY BD        
:86:ISIN  IE00BDS67326 
DEPOSITO 257270/03
VOSTRO ORDINE DEL 02.12.2020
VANECK VECTORS JP MORGAN LOCAL 
CURRENCY BOND UCITS ETF 
QUANTITA' 850,00
:62F:C201202EUR101943,45
:64:C201202EUR147613,07
:65:C201204EUR101943,45
-}
{1:F01CBLUCH22AXXX0000000000}{2:I94000286383XXXXN}{4:
:20:1202223033760024
:25:257274-06
:28C:00118/001
:60F:C201201EUR86907,15
:61:2012041202DR42553,35NSECCONTEGGIO TITOLI//221200809531
.....792 VANECK LOC.CCY BD        
:86:ISIN  IE00BDS67326 
DEPOSITO 257274/03
VOSTRO ORDINE DEL 02.12.2020
VANECK VECTORS JP MORGAN LOCAL 
CURRENCY BOND UCITS ETF 
QUANTITA' 792,00
:62F:C201202EUR44353,80
:64:C201202EUR86907,15
:65:C201204EUR44353,80
-}
{1:F01CBLUCH22AXXX0000000000}{2:I94000286383XXXXN}{4:
:20:1202223034480025
:25:257279-06
:28C:00114/001
:60F:C201201EUR227099,84
:61:2012041202DR72319,20NSECCONTEGGIO TITOLI//221200809571
....1346 VANECK LOC.CCY BD        
:86:ISIN  IE00BDS67326 
DEPOSITO 257279/03
VOSTRO ORDINE DEL 02.12.2020
VANECK VECTORS JP MORGAN LOCAL 
CURRENCY BOND UCITS ETF 
QUANTITA' 1.346,00
:62F:C201202EUR154780,64
:64:C201202EUR227099,84
:65:C201204EUR154780,64
-}
{1:F01CBLUCH22AXXX0000000000}{2:I94000286383XXXXN}{4:
:20:1202223034690026
:25:257942-06
:28C:00043/001
:60F:C201201EUR259680,52
:61:2012031202DR125632,75NSECCONTEGGIO TITOLI//221200837481
......95 CS(L)ENVIRO.EQ.IBHP      
:86:ISIN  LU2176898992 
DEPOSITO 257942/03
VOSTRO ORDINE DEL 01.12.2020
CS INV. FUNDS 2 SICAV - ENVIRO 
NMENTAL IMPACT EQUITY SHS IBHP 
QUANTITA' 95,00
:62F:C201202EUR134047,77
:64:C201202EUR64361,95
:65:C201203EUR134047,77
-}
{1:F01CBLUCH22AXXX0000000000}{2:I94000286383XXXXN}{4:
:20:1202223035400027
:25:258605-02
:28C:00063/001
:60F:C201201USD34711,94
:61:2012011202CD841,50NSECCONTEGGIO TITOLI//221200837524
....3000 INTEL CORP SHS           
:86:ISIN  US4581401001 
DEPOSITO 258605/03
INTEL CORP SHS 
QUANTITA' 3.000,00
:62F:C201202USD35553,44
:64:C201202USD35553,44
-}
{1:F01CBLUCH22AXXX0000000000}{2:I94000286383XXXXN}{4:
:20:1202223036890028
:25:258673-06
:28C:00079/001
:60F:C201201EUR17586,10
:61:2012031202CR49646,16NSECCONTEGGIO TITOLI//221200828541
.....477 UBAM(L)FIXED INC.IPC     
:86:ISIN  LU0940721409 
DEPOSITO 258673/03
VOSTRO ORDINE DEL 01.12.2020
UBAM SICAV - ABSOLUTE RETURN L 
OW VOL FIXED INCOME SHS IPC C. 
QUANTITA' 477,00
:62F:C201202EUR67232,26
:64:C201202EUR85587,80
:65:C201203EUR67232,26
-}
{1:F01CBLUCH22AXXX0000000000}{2:I94000286383XXXXN}{4:
:20:1202223037560029
:25:258949-02
:28C:00033/001
:60F:C201201USD893,89
:61:2012031202CD88052,76NSECCONTEGGIO TITOLI//221200833261
......36 CS 2(L)ROBOTICS EQ.B     
:86:ISIN  LU1202667561 
DEPOSITO 258949/03
VOSTRO ORDINE DEL 01.12.2020
CREDIT SUISSE INV.FUNDS 2 SICA 
V - ROBOTICS EQUITY SHS EB CAP 
QUANTITA' 36,00
:61:2012041202CD37114,49NSECCONTEGGIO TITOLI//221200628941
....1000 NINETY(L)GL.ASIAN.EQ     
:86:ISIN  LU0345776172 
DEPOSITO 258949/03
VOSTRO ORDINE DEL 01.12.2020
NINETY ONE GSF SICAV  - ASIAN 
EQUITY FUND I CAPITALISATION 
QUANTITA' 1.000,00
:62F:C201202USD126061,14
:64:C201202USD893,89
:65:C201203USD88946,65
:65:C201204USD126061,14
-}
{1:F01CBLUCH22AXXX0000000000}{2:I94000286383XXXXN}{4:
:20:1202223038130030
:25:258949-06
:28C:00040/001
:60F:C201201EUR283177,89
:61:2012031202CR64987,83NSECCONTEGGIO TITOLI//221200631441
.....500 VANGUARD U.K.SH-TR.      
:86:ISIN  IE00B9M1BB17 
DEPOSITO 258949/03
VOSTRO ORDINE DEL 01.12.2020
VANGUARD INV. - U.K. SHORT-TER 
M INV.GRADE BOND INDEX FD GBP 
QUANTITA' 500,00
:62F:C201202EUR348165,72
:64:C201202EUR283177,89
:65:C201203EUR348165,72
-}
{1:F01CBLUCH22AXXX0000000000}{2:I94000286383XXXXN}{4:
:20:1202223038640031
:25:261890-06
:28C:00047/001
:60F:C201201EUR1582237,53
:61:2012021202CR18,75NSECCONTEGGIO TITOLI//221200766433
..100000 AXA 2003 PERP.VRN.14     
:86:ISIN  XS0181369454 
DEPOSITO 261890/03
AXA CALLABLE NOTES 2003 PERPET 
UAL VRN.SERIES 14 SUB. 
NOMINALE 100.000,00 EUR
:62F:C201202EUR1582256,28
:64:C201202EUR1582256,28
-}
{1:F01CBLUCH22AXXX0000000000}{2:I94000286383XXXXN}{4:
:20:1202223040820032
:25:263199-06
:28C:00133/001
:60F:C201201EUR40504,18
:61:2012021202CR4321,30NTRFRIMBORSO MARGINE//221200784541
:86:REFUND MARGIN 
EUREX 
:62F:C201202EUR44825,48
:64:C201202EUR44825,48
-}
{1:F01CBLUCH22AXXX0000000000}{2:I94000286383XXXXN}{4:
:20:1202223041630033
:25:263199-30
:28C:00106/001
:60F:C201201EUR4321,30
:61:2012021202DR4321,30NTRFRIMBORSO MARGINE//221200784542
:86:REFUND MARGIN 
EUREX 
:62F:C201202EUR0,
:64:C201202EUR0,
-}
{1:F01CBLUCH22AXXX0000000000}{2:I94000286383XXXXN}{4:
:20:1202223042300034
:25:276047-02
:28C:00087/001
:60F:D201201USD1847,83
:61:2012011202CD140,25NSECCONTEGGIO TITOLI//221200837529
.....500 INTEL CORP SHS           
:86:ISIN  US4581401001 
DEPOSITO 276047/03
INTEL CORP SHS 
QUANTITA' 500,00
:61:2012011202CD323,NSECCONTEGGIO TITOLI//2212005848623
....1000 PFIZER INC SHS           
:86:ISIN  US7170811035 
DEPOSITO 276047/03
PFIZER INC SHS 
QUANTITA' 1.000,00
:62F:D201202USD1384,58
:64:D201202USD1384,58
-}
{1:F01CBLUCH22AXXX0000000000}{2:I94000286383XXXXN}{4:
:20:1202223042780035
:25:276047-06
:28C:00056/001
:60F:C201201EUR2198,91
:61:2012021202CR2125,NSECCONTEGGIO TITOLI//221200814792
..100000 EXOR 2,125  15/22        
:86:ISIN  XS1329671132 
DEPOSITO 276047/03
EXOR HOLDING 2,125  NOTES 2015 
 2.12.2022 REG-S 
NOMINALE 100.000,00 EUR
:62F:C201202EUR4323,91
:64:C201202EUR4323,91
-}
{1:F01CBLUCH22AXXX0000000000}{2:I94000286383XXXXN}{4:
:20:1202223043370036
:25:277496-02
:28C:00058/001
:60F:C201201USD932,38
:61:2012011202CD116,28NSECCONTEGGIO TITOLI//2212005848630
.....360 PFIZER INC SHS           
:86:ISIN  US7170811035 
DEPOSITO 277496/03
PFIZER INC SHS 
QUANTITA' 360,00
:62F:C201202USD1048,66
:64:C201202USD1048,66
-}
{1:F01CBLUCH22AXXX0000000000}{2:I94000286383XXXXN}{4:
:20:1202223044490037
:25:283080-02
:28C:00137/001
:60F:C201201USD584,54
:61:2012011202CD176,68NSECCONTEGGIO TITOLI//2212005848635
.....547 PFIZER INC SHS           
:86:ISIN  US7170811035 
DEPOSITO 283080/03
PFIZER INC SHS 
QUANTITA' 547,00
:62F:C201202USD761,22
:64:C201202USD761,22
-}
{1:F01CBLUCH22AXXX0000000000}{2:I94000286383XXXXN}{4:
:20:1202223044680038
:25:283119-02
:28C:00137/001
:60F:C201201USD373,95
:61:2012011202CD328,17NSECCONTEGGIO TITOLI//2212005848636
....1016 PFIZER INC SHS           
:86:ISIN  US7170811035 
DEPOSITO 283119/03
PFIZER INC SHS 
QUANTITA' 1.016,00
:62F:C201202USD702,12
:64:C201202USD702,12
-}
{1:F01CBLUCH22AXXX0000000000}{2:I94000286383XXXXN}{4:
:20:1202223044740039
:25:288261-02
:28C:00017/001
:60F:C201201USD117,34
:61:2012011202CD87,21NSECCONTEGGIO TITOLI//2212005848640
.....270 PFIZER INC SHS           
:86:ISIN  US7170811035 
DEPOSITO 288261/03
PFIZER INC SHS 
QUANTITA' 270,00
:62F:C201202USD204,55
:64:C201202USD204,55
-}
{1:F01CBLUCH22AXXX0000000000}{2:I94000286383XXXXN}{4:
:20:1202223044860040
:25:293221-02
:28C:00021/001
:60F:C201201USD3879,53
:61:2012011202CD96,90NSECCONTEGGIO TITOLI//2212005848642
.....300 PFIZER INC SHS           
:86:ISIN  US7170811035 
DEPOSITO 293221/03
PFIZER INC SHS 
QUANTITA' 300,00
:62F:C201202USD3976,43
:64:C201202USD3976,43
-}
{1:F01CBLUCH22AXXX0000000000}{2:I94000286383XXXXN}{4:
:20:1202223045340041
:25:317913-02
:28C:00120/001
:60F:C201201USD8793,75
:61:2011301202CD19250,NFEXOPERAZIONE CAMBI//221200754601
1,192 UNIONE FID.FWM05552         
:86:1,192 UNIONE FID.FWM05552 
:61:2011301202RCD26527,66NFEXOPERAZIONE CAMBI//22110691822111
1,192 UNIONE FID.FWM05552         
:86:1,192 UNIONE FID.FWM05552 
:62F:C201202USD1516,09
:64:C201202USD1516,09
-}
{1:F01CBLUCH22AXXX0000000000}{2:I94000286383XXXXN}{4:
:20:1202223045370042
:25:317913-06
:28C:00025/001
:60F:C201201EUR10415937,25
:61:2011301202RDR22254,75NFEXOPERAZIONE CAMBI//22110691822121
1,192 UNIONE FID.FWM05552         
:86:1,192 UNIONE FID.FWM05552 
:61:2011301202DR16149,33NFEXOPERAZIONE CAMBI//221200754602
1,192 UNIONE FID.FWM05552         
:86:1,192 UNIONE FID.FWM05552 
:62F:C201202EUR10422042,67
:64:C201202EUR10422042,67
-}
{1:F01CBLUCH22AXXX0000000000}{2:I94000286383XXXXN}{4:
:20:1202223045680043
:25:318768-02
:28C:00063/001
:60F:C201201USD9194,70
:61:2012011202CD434,77NSECCONTEGGIO TITOLI//2212008375215
....1550 INTEL CORP SHS           
:86:ISIN  US4581401001 
DEPOSITO 318768/03
INTEL CORP SHS 
QUANTITA' 1.550,00
:61:2012011202CD8075,NSECCONTEGGIO TITOLI//2212005848646
...25000 PFIZER INC SHS           
:86:ISIN  US7170811035 
DEPOSITO 318768/03
PFIZER INC SHS 
QUANTITA' 25.000,00
:62F:C201202USD17704,47
:64:C201202USD17704,47
-}
{1:F01CBLUCH22AXXX0000000000}{2:I94000286383XXXXN}{4:
:20:1202223045750044
:25:318776-02
:28C:00043/001
:60F:C201201USD5719,10
:61:2012011202CD154,27NSECCONTEGGIO TITOLI//2212008375216
.....550 INTEL CORP SHS           
:86:ISIN  US4581401001 
DEPOSITO 318776/03
INTEL CORP SHS 
QUANTITA' 550,00
:61:2012011202CD1195,10NSECCONTEGGIO TITOLI//2212005848647
....3700 PFIZER INC SHS           
:86:ISIN  US7170811035 
DEPOSITO 318776/03
PFIZER INC SHS 
QUANTITA' 3.700,00
:62F:C201202USD7068,47
:64:C201202USD7068,47
-}
{1:F01CBLUCH22AXXX0000000000}{2:I94000286383XXXXN}{4:
:20:1202223045870045
:25:321279-06
:28C:00018/001
:60F:C201201EUR26168,38
:61:2012081202DR15000,17NSECCONTEGGIO TITOLI//221200857311
.....321 FUNDSMITH(L)EQUITY I     
:86:ISIN  LU0690374029 
DEPOSITO 321279/03
VOSTRO ORDINE DEL 01.12.2020
FUNDSMITH EQUITY FUND SICAV - 
SHS I CAPITALISATION 
QUANTITA' 321,42
:62F:C201202EUR11168,21
:64:C201202EUR26168,38
:65:C201208EUR11168,21
-}
{1:F01CBLUCH22AXXX0000000000}{2:I94000286383XXXXN}{4:
:20:1202223045960046
:25:323077-06
:28C:00018/001
:60F:C201201EUR77751,76
:61:2012081202DR40001,40NSECCONTEGGIO TITOLI//221200857301
.....857 FUNDSMITH(L)EQUITY I     
:86:ISIN  LU0690374029 
DEPOSITO 323077/03
VOSTRO ORDINE DEL 01.12.2020
FUNDSMITH EQUITY FUND SICAV - 
SHS I CAPITALISATION 
QUANTITA' 857,14
:62F:C201202EUR37750,36
:64:C201202EUR77751,76
:65:C201208EUR37750,36
-}
{1:F01CBLUCH22AXXX0000000000}{2:I94000286383XXXXN}{4:
:20:1202223046070047
:25:329057-02
:28C:00032/001
:60F:C201201USD42442,33
:61:2012011202CD327,20NSECCONTEGGIO TITOLI//2212005848653
....1013 PFIZER INC SHS           
:86:ISIN  US7170811035 
DEPOSITO 329057/03
PFIZER INC SHS 
QUANTITA' 1.013,00
:62F:C201202USD42769,53
:64:C201202USD1768,56
:65:C201203USD42769,53
-}
{1:F01CBLUCH22AXXX0000000000}{2:I94000286383XXXXN}{4:
:20:1202223046560048
:25:329057-06
:28C:00126/001
:60F:C201201EUR134842,65
:61:2012041202DR58403,40NSECCONTEGGIO TITOLI//221200809681
....1087 VANECK LOC.CCY BD        
:86:ISIN  IE00BDS67326 
DEPOSITO 329057/03
VOSTRO ORDINE DEL 02.12.2020
VANECK VECTORS JP MORGAN LOCAL 
CURRENCY BOND UCITS ETF 
QUANTITA' 1.087,00
:62F:C201202EUR76439,25
:64:C201202EUR134842,65
:65:C201204EUR76439,25
-}
{1:F01CBLUCH22AXXX0000000000}{2:I94000286383XXXXN}{4:
:20:1202223046590049
:25:330260-01
:28C:00013/001
:60F:C201201CHF2434,02
:61:2012041202CF5000,NFEXOPERAZIONE CAMBI//221200748321
1,2 UNIONE FID.FWM04981           
:86:1,2 UNIONE FID.FWM04981 
:62F:C201202CHF7434,02
:64:C201202CHF2434,02
:65:C201204CHF7434,02
-}
{1:F01CBLUCH22AXXX0000000000}{2:I94000286383XXXXN}{4:
:20:1202223046630050
:25:330260-03
:28C:00021/001
:60F:C201201GBP14292,43
:61:2012041202DP4166,67NFEXOPERAZIONE CAMBI//221200748322
1,2 UNIONE FID.FWM04981           
:86:1,2 UNIONE FID.FWM04981 
:61:2012041202DP9040,NFEXOPERAZIONE CAMBI//221200748502
0,904 UNIONE FID.FWM04981         
:86:0,904 UNIONE FID.FWM04981 
:62F:C201202GBP1085,76
:64:C201202GBP14292,43
:65:C201204GBP1085,76
-}
{1:F01CBLUCH22AXXX0000000000}{2:I94000286383XXXXN}{4:
:20:1202223046710051
:25:330260-06
:28C:00035/001
:60F:C201201EUR1613220,76
:61:2012041202CR10000,NFEXOPERAZIONE CAMBI//221200748501
0,904 UNIONE FID.FWM04981         
:86:0,904 UNIONE FID.FWM04981 
:62F:C201202EUR1623220,76
:64:C201202EUR1613220,76
:65:C201204EUR1623220,76
-}
{1:F01CBLUCH22AXXX0000000000}{2:I94000286383XXXXN}{4:
:20:1202223046710052
:25:330268-01
:28C:00005/001
:60F:C201201CHF2151,40
:61:2012041202CF5000,NFEXOPERAZIONE CAMBI//221200748751
1,2 UNIONE FID.FWM06091           
:86:1,2 UNIONE FID.FWM06091 
:62F:C201202CHF7151,40
:64:C201202CHF2151,40
:65:C201204CHF7151,40
-}
{1:F01CBLUCH22AXXX0000000000}{2:I94000286383XXXXN}{4:
:20:1202223046740053
:25:330268-03
:28C:00031/001
:60F:C201201GBP15557,28
:61:2012041202DP4166,67NFEXOPERAZIONE CAMBI//221200748752
1,2 UNIONE FID.FWM06091           
:86:1,2 UNIONE FID.FWM06091 
:62F:C201202GBP11390,61
:64:C201202GBP15557,28
:65:C201204GBP11390,61
-}
{1:F01CBLUCH22AXXX0000000000}{2:I94000286383XXXXN}{4:
:20:1202223046900054
:25:347655-02
:28C:00031/001
:60F:C201201USD10106,51
:61:2012011202CD100,98NSECCONTEGGIO TITOLI//2212008375222
.....360 INTEL CORP SHS           
:86:ISIN  US4581401001 
DEPOSITO 347655/03
INTEL CORP SHS 
QUANTITA' 360,00
:62F:C201202USD10207,49
:64:C201202USD10207,49
-}
{1:F01CBLUCH22AXXX0000000000}{2:I94000286383XXXXN}{4:
:20:1202223047430055
:25:358701-06
:28C:00060/001
:60F:C201201EUR47398,90
:61:2012031202CR14467,12NSECCONTEGGIO TITOLI//221200828481
.....139 UBAM(L)FIXED INC.IPC     
:86:ISIN  LU0940721409 
DEPOSITO 358701/03
VOSTRO ORDINE DEL 01.12.2020
UBAM SICAV - ABSOLUTE RETURN L 
OW VOL FIXED INCOME SHS IPC C. 
QUANTITA' 139,00
:62F:C201202EUR61866,02
:64:C201202EUR66479,38
:65:C201203EUR61866,02
-}
{1:F01CBLUCH22AXXX0000000000}{2:I94000286383XXXXN}{4:
:20:1202223047580056
:25:359240-06
:28C:00026/001
:60F:C201201EUR25760,44
:61:2012081202DR20000,69NSECCONTEGGIO TITOLI//221200857271
.....428 FUNDSMITH(L)EQUITY I     
:86:ISIN  LU0690374029 
DEPOSITO 359240/03
VOSTRO ORDINE DEL 01.12.2020
FUNDSMITH EQUITY FUND SICAV - 
SHS I CAPITALISATION 
QUANTITA' 428,57
:62F:C201202EUR5759,75
:64:C201202EUR25760,44
:65:C201208EUR5759,75
-}
{1:F01CBLUCH22AXXX0000000000}{2:I94000286383XXXXN}{4:
:20:1202223048470057
:25:359249-06
:28C:00065/001
:60F:C201201EUR146203,05
:61:2012021202CR3240,96NTRFRIMBORSO MARGINE//221200786141
:86:REFUND MARGIN 
EUREX 
:62F:C201202EUR149444,01
:64:C201202EUR149444,01
-}
{1:F01CBLUCH22AXXX0000000000}{2:I94000286383XXXXN}{4:
:20:1202223048490058
:25:359249-20
:28C:00014/001
:60F:C201201EUR3240,96
:61:2012021202DR3240,96NTRFRIMBORSO MARGINE//221200786142
:86:REFUND MARGIN 
EUREX 
:62F:C201202EUR0,
:64:C201202EUR0,
-}
{1:F01CBLUCH22AXXX0000000000}{2:I94000286383XXXXN}{4:
:20:1202223049970059
:25:359551-06
:28C:00092/001
:60F:C201201EUR72005,72
:61:2012021202DR7500,NTRFBONIFICO        //221200730111
:86:02.12.2020 DP6294480337 
VOSTRO ORDINE DEL 01.12.2020 
IT34W0569611006000006000X28 
UNIONE FIDUCIARIA SPA 
BANCA POPOLARE DI SONDRIO 
IT - SONDRIO 
:62F:C201202EUR64505,72
:64:C201202EUR64505,72
-}
{1:F01CBLUCH22AXXX0000000000}{2:I94000286383XXXXN}{4:
:20:1202223050130060
:25:363631-01
:28C:00017/001
:60F:C201201USD836,76
:61:2012011202CD140,25NSECCONTEGGIO TITOLI//2212008375227
.....500 INTEL CORP SHS           
:86:ISIN  US4581401001 
DEPOSITO 363631/03
INTEL CORP SHS 
QUANTITA' 500,00
:62F:C201202USD977,01
:64:C201202USD977,01
-}
{1:F01CBLUCH22AXXX0000000000}{2:I94000286383XXXXN}{4:
:20:1202223051340061
:25:366130-06
:28C:00133/001
:60F:C201201EUR635437,30
:61:2012021202CR12964,18NTRFRIMBORSO MARGINE//221200786331
:86:REFUND MARGIN 
EUREX 
:62F:C201202EUR648401,48
:64:C201202EUR648401,48
-}
{1:F01CBLUCH22AXXX0000000000}{2:I94000286383XXXXN}{4:
:20:1202223051370062
:25:366130-30
:28C:00106/001
:60F:C201201EUR12964,18
:61:2012021202DR12964,18NTRFRIMBORSO MARGINE//221200786332
:86:REFUND MARGIN 
EUREX 
:62F:C201202EUR0,
:64:C201202EUR0,
-}
{1:F01CBLUCH22AXXX0000000000}{2:I94000286383XXXXN}{4:
:20:1202223052180063
:25:372738-06
:28C:00133/001
:60F:C201201EUR566865,32
:61:2012021202CR4321,30NTRFRIMBORSO MARGINE//221200786551
:86:REFUND MARGIN 
EUREX 
:62F:C201202EUR571186,62
:64:C201202EUR571186,62
-}
{1:F01CBLUCH22AXXX0000000000}{2:I94000286383XXXXN}{4:
:20:1202223052210064
:25:372738-30
:28C:00106/001
:60F:C201201EUR4321,30
:61:2012021202DR4321,30NTRFRIMBORSO MARGINE//221200786552
:86:REFUND MARGIN 
EUREX 
:62F:C201202EUR0,
:64:C201202EUR0,
-}
{1:F01CBLUCH22AXXX0000000000}{2:I94000286383XXXXN}{4:
:20:1202223052430065
:25:374069-06
:28C:00062/001
:60F:C201201EUR489030,93
:61:2012021202CR1561,40NTRFRIMBORSO MARGINE//221200786541
:86:REFUND MARGIN 
EUREX 
:62F:C201202EUR490592,33
:64:C201202EUR490592,33
-}
{1:F01CBLUCH22AXXX0000000000}{2:I94000286383XXXXN}{4:
:20:1202223052430066
:25:374069-30
:28C:00014/001
:60F:C201201EUR1561,40
:61:2012021202DR1561,40NTRFRIMBORSO MARGINE//221200786542
:86:REFUND MARGIN 
EUREX 
:62F:C201202EUR0,
:64:C201202EUR0,
-}
{1:F01CBLUCH22AXXX0000000000}{2:I94000286383XXXXN}{4:
:20:1202223052690067
:25:374685-06
:28C:00133/001
:60F:C201201EUR345771,13
:61:2012021202CR7562,34NTRFRIMBORSO MARGINE//221200786631
:86:REFUND MARGIN 
EUREX 
:62F:C201202EUR353333,47
:64:C201202EUR353333,47
-}
{1:F01CBLUCH22AXXX0000000000}{2:I94000286383XXXXN}{4:
:20:1202223052720068
:25:374685-30
:28C:00106/001
:60F:C201201EUR7562,34
:61:2012021202DR7562,34NTRFRIMBORSO MARGINE//221200786632
:86:REFUND MARGIN 
EUREX 
:62F:C201202EUR0,
:64:C201202EUR0,
-}
